Nutrient Solubility
…
  mutate(
    g_per_mol = as.numeric(g_per_mol), # Convert from character into numeric
    concentration_molL = concentration_mgL/(1e3 * g_per_mol) # Convert from mg/L into mol/L
    ) %>% 
  
  select(-c(concentration_mgL, g_per_mol)) %>% # Remove unnecessary columns
  
  pivot_wider( # Convert into widetable
    names_from = 'nutrient',
    values_from = 'concentration_molL'
    ) %>% 
  
  print()

## # A tibble: 47 × 30
##    Reference_ID  Treatment_ID Include source     condition  days    pH temp_degC
##    <chr>         <chr>        <chr>   <chr>      <chr>     <dbl> <dbl>     <dbl>
##  1 Blanchard2020 pH5          Yes     waterTRANS aerobic      NA  6.3       NA  
##  2 Blanchard2020 pH5.8        Yes     waterTRANS aerobic      NA  6.4       NA  
##  3 Blanchard2020 pH6.5        Yes     waterTRANS aerobic      NA  6.7       NA  
##  4 Blanchard2020 pH7          Yes     waterTRANS aerobic      NA  6.9       NA  
##  5 Cerozi2020    System       Yes     waterTRANS aerobic      NA  6.55      NA  
##  6 Delaide2018   AER          Yes     waterREMIN aerobic      42  6.54      28  
##  7 Delaide2018   ANR          Yes     waterREMIN anaerobic    42  6.65      28  
##  8 Delaide2019   AP           Yes     waterRAS   aerobic      NA  7.85      NA  
##  9 Delaide2021   AE           Yes     waterREMIN aerobic      45  6.8       20.5
## 10 Goddek2016    AER          Yes     waterREMIN aerobic      35  8.4       22.9
## # … with 37 more rows, and 22 more variables: EC_uScm <dbl>, NH4-N <dbl>,
## #   NO2-N <dbl>, NO3-N <dbl>, PO4-P <dbl>, species_PO4_molL <dbl>,
## #   species_CO3_molL <dbl>, species_OH_molL <dbl>, species_SO4_molL <dbl>,
## #   K <dbl>, Ca <dbl>, Mg <dbl>, S <dbl>, B <dbl>, Fe <dbl>, Mn <dbl>,
## #   Cu <dbl>, Zn <dbl>, Mo <dbl>, Ni <dbl>, Na <dbl>, N <dbl>
…
    # Ni3PO42
    Ni_in_Ni3PO42 = (solubility_data$Ks0[which(solubility_data$chemFormula == "Ni3(PO4)2",)] / species_PO4_molL^2)^(1/3),
    Ni_found_greater_Ni3PO42 = Ni > Ni_in_Ni3PO42,
    Ni3PO42_diff = Ni - Ni_in_Ni3PO42,
    Ni3PO42_prop = Ni / Ni_in_Ni3PO42
  ) %>% 
  
  write_csv(file = 'data/interm/nutrientSolubility_pHcorrected.csv') %>% 
  
  print()

## # A tibble: 47 × 90
##    Reference_ID  Treatment_ID Include source     condition  days    pH temp_degC
##    <chr>         <chr>        <chr>   <chr>      <chr>     <dbl> <dbl>     <dbl>
##  1 Blanchard2020 pH5          Yes     waterTRANS aerobic      NA  6.3       NA  
##  2 Blanchard2020 pH5.8        Yes     waterTRANS aerobic      NA  6.4       NA  
##  3 Blanchard2020 pH6.5        Yes     waterTRANS aerobic      NA  6.7       NA  
##  4 Blanchard2020 pH7          Yes     waterTRANS aerobic      NA  6.9       NA  
##  5 Cerozi2020    System       Yes     waterTRANS aerobic      NA  6.55      NA  
##  6 Delaide2018   AER          Yes     waterREMIN aerobic      42  6.54      28  
##  7 Delaide2018   ANR          Yes     waterREMIN anaerobic    42  6.65      28  
##  8 Delaide2019   AP           Yes     waterRAS   aerobic      NA  7.85      NA  
##  9 Delaide2021   AE           Yes     waterREMIN aerobic      45  6.8       20.5
## 10 Goddek2016    AER          Yes     waterREMIN aerobic      35  8.4       22.9
## # … with 37 more rows, and 82 more variables: EC_uScm <dbl>, NH4-N <dbl>,
## #   NO2-N <dbl>, NO3-N <dbl>, PO4-P <dbl>, species_PO4_molL <dbl>,
## #   species_CO3_molL <dbl>, species_OH_molL <dbl>, species_SO4_molL <dbl>,
## #   K <dbl>, Ca <dbl>, Mg <dbl>, S <dbl>, B <dbl>, Fe <dbl>, Mn <dbl>,
## #   Cu <dbl>, Zn <dbl>, Mo <dbl>, Ni <dbl>, Na <dbl>, N <dbl>,
## #   Ca_in_CaCO3 <dbl>, Ca_found_greater_CaCO3 <lgl>, CaCO3_diff <dbl>,
## #   CaCO3_prop <dbl>, Ca_in_CaOH2 <dbl>, Ca_found_greater_CaOH2 <lgl>, …

The following compounds were not considered:

procdata %>% 
  select(Ca_in_CaCO3:Ni_in_Ni3PO42) %>% 
  print()

## # A tibble: 47 × 57
##    Ca_in_CaCO3 Ca_found_greater_CaCO3 CaCO3_diff CaCO3_prop  Ca_in_CaOH2
##          <dbl> <lgl>                       <dbl>      <dbl>        <dbl>
##  1  0.0220     FALSE                   -0.0173       0.212  12609669886.
##  2  0.0139     FALSE                   -0.00919      0.338   7956163826.
##  3  0.00349    TRUE                     0.00115      1.33    1998497996.
##  4  0.00139    TRUE                     0.00328      3.36     795616383.
##  5  0.00696    FALSE                   -0.00537      0.228   3987527738.
##  6  0.00729    NA                      NA           NA       4175454131.
##  7  0.00439    NA                      NA           NA       2515959913.
##  8  0.0000175  TRUE                     0.00356    204.        10016217.
##  9  0.00220    FALSE                   -0.00202      0.0834  1260966989.
## 10  0.00000139 TRUE                     0.000298   216.          795616.
## # … with 37 more rows, and 52 more variables: Ca_found_greater_CaOH2 <lgl>,
## #   CaOH2_diff <dbl>, CaOH2_prop <dbl>, Ca_in_Ca3PO42 <dbl>,
## #   Ca_found_greater_Ca3PO42 <lgl>, Ca3PO42_diff <dbl>, Ca3PO42_prop <dbl>,
## #   Ca_in_CaSO4 <dbl>, Ca_found_greater_CaSO4 <lgl>, CaSO4_diff <dbl>,
## #   CaSO4_prop <dbl>, Mg_in_MgCO3 <dbl>, Mg_found_greater_MgCO3 <lgl>,
## #   MgCO3_diff <dbl>, MgCO3_prop <dbl>, Mg_in_MgOH2 <dbl>,
## #   Mg_found_greater_MgOH2 <lgl>, MgOH2_diff <dbl>, MgOH2_prop <dbl>, …
…
  select(ends_with('_prop')) %>% 
  pivot_longer(
    cols = everything(),
    names_to = 'substance',
    values_to = 'proportion'
  ) %>% 
  mutate(
    substance = sub('_prop', '', substance)
  ) %>% 
  filter(
    proportion != Inf
    ) %>% 
  print()

## # A tibble: 309 × 2
##    substance proportion
##    <chr>          <dbl>
##  1 CaCO3       2.12e- 1
##  2 CaOH2       3.70e-13
##  3 Ca3PO42     6.91e- 1
##  4 MgCO3       1.84e- 5
##  5 MgOH2       5.84e- 8
##  6 Mg3PO42     2.59e- 2
##  7 FePO4       1.63e- 1
##  8 MnCO3       6.20e- 3
##  9 Cu3PO42     1.93e- 1
## 10 ZnCO3       1.28e- 3
## # … with 299 more rows
…
  mutate(
    g_per_mol = as.numeric(g_per_mol), # Convert from character into numeric
    concentration_molL = concentration_mgL/(1e3 * g_per_mol) # Convert from mg/L into mol/L
    ) %>% 
  
  select(-c(concentration_mgL, g_per_mol)) %>% # Remove unnecessary columns
  
  pivot_wider( # Convert into widetable
    names_from = 'nutrient',
    values_from = 'concentration_molL'
    ) %>% 
  
  print()

## # A tibble: 47 × 30
##    Reference_ID  Treatment_ID Include source     condition  days    pH temp_degC
##    <chr>         <chr>        <chr>   <chr>      <chr>     <dbl> <dbl>     <dbl>
##  1 Blanchard2020 pH5          Yes     waterTRANS aerobic      NA  6.3       NA  
##  2 Blanchard2020 pH5.8        Yes     waterTRANS aerobic      NA  6.4       NA  
##  3 Blanchard2020 pH6.5        Yes     waterTRANS aerobic      NA  6.7       NA  
##  4 Blanchard2020 pH7          Yes     waterTRANS aerobic      NA  6.9       NA  
##  5 Cerozi2020    System       Yes     waterTRANS aerobic      NA  6.55      NA  
##  6 Delaide2018   AER          Yes     waterREMIN aerobic      42  6.54      28  
##  7 Delaide2018   ANR          Yes     waterREMIN anaerobic    42  6.65      28  
##  8 Delaide2019   AP           Yes     waterRAS   aerobic      NA  7.85      NA  
##  9 Delaide2021   AE           Yes     waterREMIN aerobic      45  6.8       20.5
## 10 Goddek2016    AER          Yes     waterREMIN aerobic      35  8.4       22.9
## # … with 37 more rows, and 22 more variables: EC_uScm <dbl>, NH4-N <dbl>,
## #   NO2-N <dbl>, NO3-N <dbl>, PO4-P <dbl>, species_PO4_molL <dbl>,
## #   species_CO3_molL <dbl>, species_OH_molL <dbl>, species_SO4_molL <dbl>,
## #   K <dbl>, Ca <dbl>, Mg <dbl>, S <dbl>, B <dbl>, Fe <dbl>, Mn <dbl>,
## #   Cu <dbl>, Zn <dbl>, Mo <dbl>, Ni <dbl>, Na <dbl>, N <dbl>
…
    # Ni(OH)2
    Ni_in_NiOH2 = solubility_data$Ks0[which(solubility_data$chemFormula == "Ni(OH)2",)] / species_OH_molL^2,
    Ni_found_greater_NiOH2 = Ni > Ni_in_NiOH2,
    NiOH2_diff = Ni - Ni_in_NiOH2,
    NiOH2_prop = Ni / Ni_in_NiOH2,
    
    # Ni3PO42
    Ni_in_Ni3PO42 = (solubility_data$Ks0[which(solubility_data$chemFormula == "Ni3(PO4)2",)] / species_PO4_molL^2)^(1/3),
    Ni_found_greater_Ni3PO42 = Ni > Ni_in_Ni3PO42,
    Ni3PO42_diff = Ni - Ni_in_Ni3PO42,
    Ni3PO42_prop = Ni / Ni_in_Ni3PO42
  ) %>% 
  print()

## # A tibble: 47 × 90
##    Reference_ID  Treatment_ID Include source     condition  days    pH temp_degC
##    <chr>         <chr>        <chr>   <chr>      <chr>     <dbl> <dbl>     <dbl>
##  1 Blanchard2020 pH5          Yes     waterTRANS aerobic      NA  6.3       NA  
##  2 Blanchard2020 pH5.8        Yes     waterTRANS aerobic      NA  6.4       NA  
##  3 Blanchard2020 pH6.5        Yes     waterTRANS aerobic      NA  6.7       NA  
##  4 Blanchard2020 pH7          Yes     waterTRANS aerobic      NA  6.9       NA  
##  5 Cerozi2020    System       Yes     waterTRANS aerobic      NA  6.55      NA  
##  6 Delaide2018   AER          Yes     waterREMIN aerobic      42  6.54      28  
##  7 Delaide2018   ANR          Yes     waterREMIN anaerobic    42  6.65      28  
##  8 Delaide2019   AP           Yes     waterRAS   aerobic      NA  7.85      NA  
##  9 Delaide2021   AE           Yes     waterREMIN aerobic      45  6.8       20.5
## 10 Goddek2016    AER          Yes     waterREMIN aerobic      35  8.4       22.9
## # … with 37 more rows, and 82 more variables: EC_uScm <dbl>, NH4-N <dbl>,
## #   NO2-N <dbl>, NO3-N <dbl>, PO4-P <dbl>, species_PO4_molL <dbl>,
## #   species_CO3_molL <dbl>, species_OH_molL <dbl>, species_SO4_molL <dbl>,
## #   K <dbl>, Ca <dbl>, Mg <dbl>, S <dbl>, B <dbl>, Fe <dbl>, Mn <dbl>,
## #   Cu <dbl>, Zn <dbl>, Mo <dbl>, Ni <dbl>, Na <dbl>, N <dbl>,
## #   Ca_in_CaCO3 <dbl>, Ca_found_greater_CaCO3 <lgl>, CaCO3_diff <dbl>,
## #   CaCO3_prop <dbl>, Ca_in_CaOH2 <dbl>, Ca_found_greater_CaOH2 <lgl>, …

The following compounds were not considered:

procdata %>% 
  select(Ca_in_CaCO3:Ni_in_Ni3PO42) %>% 
  print()

## # A tibble: 47 × 57
##    Ca_in_CaCO3 Ca_found_greater_CaCO3 CaCO3_diff CaCO3_prop  Ca_in_CaOH2
##          <dbl> <lgl>                       <dbl>      <dbl>        <dbl>
##  1   0.440     FALSE                   -0.435       0.0106  12609669886.
##  2   0.278     FALSE                   -0.273       0.0169   7956163826.
##  3   0.0697    FALSE                   -0.0651      0.0665   1998497996.
##  4   0.0278    FALSE                   -0.0231      0.168     795616383.
##  5   0.139     FALSE                   -0.138       0.0114   3987527738.
##  6   0.146     NA                      NA          NA        4175454131.
##  7   0.0878    NA                      NA          NA        2515959913.
##  8   0.000350  TRUE                     0.00322    10.2        10016217.
##  9   0.0440    FALSE                   -0.0438      0.00417  1260966989.
## 10   0.0000278 TRUE                     0.000272   10.8          795616.
## # … with 37 more rows, and 52 more variables: Ca_found_greater_CaOH2 <lgl>,
## #   CaOH2_diff <dbl>, CaOH2_prop <dbl>, Ca_in_Ca3PO42 <dbl>,
## #   Ca_found_greater_Ca3PO42 <lgl>, Ca3PO42_diff <dbl>, Ca3PO42_prop <dbl>,
## #   Ca_in_CaSO4 <dbl>, Ca_found_greater_CaSO4 <lgl>, CaSO4_diff <dbl>,
## #   CaSO4_prop <dbl>, Mg_in_MgCO3 <dbl>, Mg_found_greater_MgCO3 <lgl>,
## #   MgCO3_diff <dbl>, MgCO3_prop <dbl>, Mg_in_MgOH2 <dbl>,
## #   Mg_found_greater_MgOH2 <lgl>, MgOH2_diff <dbl>, MgOH2_prop <dbl>, …
…
  select(ends_with('_prop')) %>% 
  pivot_longer(
    cols = everything(),
    names_to = 'substance',
    values_to = 'proportion'
  ) %>% 
  mutate(
    substance = sub('_prop', '', substance)
  ) %>% 
  filter(
    proportion != Inf
    ) %>% 
  print()

## # A tibble: 309 × 2
##    substance proportion
##    <chr>          <dbl>
##  1 CaCO3       1.06e- 2
##  2 CaOH2       3.70e-13
##  3 Ca3PO42     6.91e- 1
##  4 MgCO3       9.21e- 7
##  5 MgOH2       5.84e- 8
##  6 Mg3PO42     2.59e- 2
##  7 FePO4       1.63e- 1
##  8 MnCO3       3.10e- 4
##  9 Cu3PO42     1.93e- 1
## 10 ZnCO3       6.40e- 5
## # … with 299 more rows
…
